instname;pivot;initial;result;time
100_20_01;BEST;RZP;1824695;3435
100_20_01;FIRST;RZP;1824454;2982
100_20_01;BEST;RND;1850677;11902
100_20_01;FIRST;RND;1822111;22817
100_20_02;BEST;RZP;1831318;3421
100_20_02;FIRST;RZP;1841859;2823
100_20_02;BEST;RND;1895282;9664
100_20_02;FIRST;RND;1849270;16178
100_20_03;BEST;RZP;1705882;3939
100_20_03;FIRST;RZP;1694390;3477
100_20_03;BEST;RND;1769241;9564
100_20_03;FIRST;RND;1707874;25708
100_20_04;BEST;RZP;1992598;1837
100_20_04;FIRST;RZP;1981745;2263
100_20_04;BEST;RND;2032351;9174
100_20_04;FIRST;RND;2016866;18663
100_20_05;BEST;RZP;1575009;5083
100_20_05;FIRST;RZP;1577091;3472
100_20_05;BEST;RND;1597586;11872
100_20_05;FIRST;RND;1580158;21628
100_20_06;BEST;RZP;1697085;3084
100_20_06;FIRST;RZP;1681998;2614
100_20_06;BEST;RND;1727736;9935
100_20_06;FIRST;RND;1700557;18699
100_20_07;BEST;RZP;1815941;3081
100_20_07;FIRST;RZP;1813874;3673
100_20_07;BEST;RND;1821972;10763
100_20_07;FIRST;RND;1808257;22012
100_20_08;BEST;RZP;1790460;4914
100_20_08;FIRST;RZP;1801238;1777
100_20_08;BEST;RND;1817739;11545
100_20_08;FIRST;RND;1788556;18559
100_20_09;BEST;RZP;1879682;5160
100_20_09;FIRST;RZP;1879895;3048
100_20_09;BEST;RND;1903294;11964
100_20_09;FIRST;RND;1882403;19619
100_20_10;BEST;RZP;1703609;3059
100_20_10;FIRST;RZP;1704404;2049
100_20_10;BEST;RND;1714125;11243
100_20_10;FIRST;RND;1695367;17126
100_20_11;BEST;RZP;1876483;4923
100_20_11;FIRST;RZP;1859442;4606
100_20_11;BEST;RND;1920429;9512
100_20_11;FIRST;RND;1854909;16719
100_20_12;BEST;RZP;1740574;2607
100_20_12;FIRST;RZP;1742196;3592
100_20_12;BEST;RND;1765718;10616
100_20_12;FIRST;RND;1733280;16745
100_20_13;BEST;RZP;1756659;3000
100_20_13;FIRST;RZP;1763975;2947
100_20_13;BEST;RND;1789484;9948
100_20_13;FIRST;RND;1788830;18000
100_20_14;BEST;RZP;1760770;3775
100_20_14;FIRST;RZP;1742622;4276
100_20_14;BEST;RND;1762169;10521
100_20_14;FIRST;RND;1731711;22057
100_20_15;BEST;RZP;1499780;1567
100_20_15;FIRST;RZP;1487923;2023
100_20_15;BEST;RND;1489092;9599
100_20_15;FIRST;RND;1516698;19561
100_20_16;BEST;RZP;1892043;4651
100_20_16;FIRST;RZP;1897705;2292
100_20_16;BEST;RND;1904595;11256
100_20_16;FIRST;RND;1877391;14681
100_20_17;BEST;RZP;1820184;2718
100_20_17;FIRST;RZP;1809006;2976
100_20_17;BEST;RND;1858775;11082
100_20_17;FIRST;RND;1839044;20974
100_20_18;BEST;RZP;1863862;2470
100_20_18;FIRST;RZP;1845931;2535
100_20_18;BEST;RND;1884467;12388
100_20_18;FIRST;RND;1849350;21496
100_20_19;BEST;RZP;1713540;2417
100_20_19;FIRST;RZP;1719272;2731
100_20_19;BEST;RND;1756971;8653
100_20_19;FIRST;RND;1714442;19338
100_20_20;BEST;RZP;1860342;2053
100_20_20;FIRST;RZP;1835872;2994
100_20_20;BEST;RND;1871099;10719
100_20_20;FIRST;RND;1848691;16369
100_20_21;BEST;RZP;1741792;2481
100_20_21;FIRST;RZP;1756185;2875
100_20_21;BEST;RND;1779589;10773
100_20_21;FIRST;RND;1756695;12926
100_20_22;BEST;RZP;1784547;2594
100_20_22;FIRST;RZP;1776334;2954
100_20_22;BEST;RND;1796249;10421
100_20_22;FIRST;RND;1771010;19552
100_20_23;BEST;RZP;1814901;3149
100_20_23;FIRST;RZP;1841500;2001
100_20_23;BEST;RND;1854492;10738
100_20_23;FIRST;RND;1840379;16322
100_20_24;BEST;RZP;1739052;3207
100_20_24;FIRST;RZP;1737329;2725
100_20_24;BEST;RND;1772347;12544
100_20_24;FIRST;RND;1744271;18185
100_20_25;BEST;RZP;1766146;3135
100_20_25;FIRST;RZP;1756508;2268
100_20_25;BEST;RND;1791161;10521
100_20_25;FIRST;RND;1768068;24115
100_20_26;BEST;RZP;1610766;4700
100_20_26;FIRST;RZP;1606368;3648
100_20_26;BEST;RND;1609813;12198
100_20_26;FIRST;RND;1610509;17562
100_20_27;BEST;RZP;1910042;2034
100_20_27;FIRST;RZP;1906162;2183
100_20_27;BEST;RND;1927996;13466
100_20_27;FIRST;RND;1922034;18690
100_20_28;BEST;RZP;1790692;2731
100_20_28;FIRST;RZP;1780172;1940
100_20_28;BEST;RND;1807880;10665
100_20_28;FIRST;RND;1786744;18178
100_20_29;BEST;RZP;2022845;4527
100_20_29;FIRST;RZP;2035221;3318
100_20_29;BEST;RND;2056705;11905
100_20_29;FIRST;RND;2045596;19465
100_20_30;BEST;RZP;1821690;4630
100_20_30;FIRST;RZP;1802229;1862
100_20_30;BEST;RND;1849457;8390
100_20_30;FIRST;RND;1802739;16149
50_20_01;BEST;RZP;611804;172
50_20_01;FIRST;RZP;607386;185
50_20_01;BEST;RND;614786;646
50_20_01;FIRST;RND;604599;919
50_20_02;BEST;RZP;631521;206
50_20_02;FIRST;RZP;635426;210
50_20_02;BEST;RND;645939;736
50_20_02;FIRST;RND;636604;881
50_20_03;BEST;RZP;607605;215
50_20_03;FIRST;RZP;599235;140
50_20_03;BEST;RND;602362;705
50_20_03;FIRST;RND;608347;834
50_20_04;BEST;RZP;676652;155
50_20_04;FIRST;RZP;674947;205
50_20_04;BEST;RND;697155;683
50_20_04;FIRST;RND;674243;1029
50_20_05;BEST;RZP;669600;307
50_20_05;FIRST;RZP;662741;272
50_20_05;BEST;RND;667738;886
50_20_05;FIRST;RND;670696;1084
50_20_06;BEST;RZP;653096;322
50_20_06;FIRST;RZP;655640;162
50_20_06;BEST;RND;664237;719
50_20_06;FIRST;RND;653395;925
50_20_07;BEST;RZP;582736;104
50_20_07;FIRST;RZP;582574;141
50_20_07;BEST;RND;571554;757
50_20_07;FIRST;RND;582703;1075
50_20_08;BEST;RZP;543027;228
50_20_08;FIRST;RZP;542350;263
50_20_08;BEST;RND;540973;761
50_20_08;FIRST;RND;541469;900
50_20_09;BEST;RZP;587769;174
50_20_09;FIRST;RZP;588689;127
50_20_09;BEST;RND;589043;607
50_20_09;FIRST;RND;579483;940
50_20_10;BEST;RZP;610319;210
50_20_10;FIRST;RZP;606447;244
50_20_10;BEST;RND;628130;580
50_20_10;FIRST;RND;611192;952
50_20_11;BEST;RZP;615598;190
50_20_11;FIRST;RZP;614216;171
50_20_11;BEST;RND;621577;612
50_20_11;FIRST;RND;622464;754
50_20_12;BEST;RZP;595930;157
50_20_12;FIRST;RZP;595930;159
50_20_12;BEST;RND;608796;557
50_20_12;FIRST;RND;597486;962
50_20_13;BEST;RZP;565353;174
50_20_13;FIRST;RZP;562544;203
50_20_13;BEST;RND;569864;526
50_20_13;FIRST;RND;559642;786
50_20_14;BEST;RZP;585178;247
50_20_14;FIRST;RZP;584816;123
50_20_14;BEST;RND;585384;777
50_20_14;FIRST;RND;579789;1173
50_20_15;BEST;RZP;607312;192
50_20_15;FIRST;RZP;608389;145
50_20_15;BEST;RND;615596;667
50_20_15;FIRST;RND;603590;829
50_20_16;BEST;RZP;557651;154
50_20_16;FIRST;RZP;557173;191
50_20_16;BEST;RND;559230;816
50_20_16;FIRST;RND;561745;858
50_20_17;BEST;RZP;659664;236
50_20_17;FIRST;RZP;661444;89
50_20_17;BEST;RND;669759;797
50_20_17;FIRST;RND;659946;1135
50_20_18;BEST;RZP;645554;172
50_20_18;FIRST;RZP;645996;89
50_20_18;BEST;RND;644626;688
50_20_18;FIRST;RND;644946;971
50_20_19;BEST;RZP;478023;154
50_20_19;FIRST;RZP;478244;130
50_20_19;BEST;RND;477935;504
50_20_19;FIRST;RND;469828;1049
50_20_20;BEST;RZP;572950;251
50_20_20;FIRST;RZP;582009;144
50_20_20;BEST;RND;589408;660
50_20_20;FIRST;RND;577972;999
50_20_21;BEST;RZP;625358;203
50_20_21;FIRST;RZP;628923;137
50_20_21;BEST;RND;638051;819
50_20_21;FIRST;RND;635440;1112
50_20_22;BEST;RZP;652080;174
50_20_22;FIRST;RZP;656506;176
50_20_22;BEST;RND;666374;592
50_20_22;FIRST;RND;656169;682
50_20_23;BEST;RZP;611752;164
50_20_23;FIRST;RZP;615272;110
50_20_23;BEST;RND;622829;701
50_20_23;FIRST;RND;615875;924
50_20_24;BEST;RZP;563387;155
50_20_24;FIRST;RZP;557742;163
50_20_24;BEST;RND;571261;651
50_20_24;FIRST;RND;556364;740
50_20_25;BEST;RZP;603865;190
50_20_25;FIRST;RZP;597630;365
50_20_25;BEST;RND;606233;614
50_20_25;FIRST;RND;600976;797
50_20_26;BEST;RZP;610483;175
50_20_26;FIRST;RZP;615420;163
50_20_26;BEST;RND;622281;576
50_20_26;FIRST;RND;607167;786
50_20_27;BEST;RZP;575342;180
50_20_27;FIRST;RZP;573409;180
50_20_27;BEST;RND;571551;758
50_20_27;FIRST;RND;572865;857
50_20_28;BEST;RZP;557861;251
50_20_28;FIRST;RZP;558245;161
50_20_28;BEST;RND;567491;705
50_20_28;FIRST;RND;557676;1087
50_20_29;BEST;RZP;556833;212
50_20_29;FIRST;RZP;553187;266
50_20_29;BEST;RND;558508;693
50_20_29;FIRST;RND;555399;1000
50_20_30;BEST;RZP;512304;299
50_20_30;FIRST;RZP;516798;181
50_20_30;BEST;RND;516056;746
50_20_30;FIRST;RND;515768;965
